{
  "project_info": {
    "project_number": "661060241680",
    "firebase_url": "https://pruebas-3a53a.firebaseio.com",
    "project_id": "pruebas-3a53a",
    "storage_bucket": "pruebas-3a53a.appspot.com"
  },
  "client": [
    {
      "client_info": {
        "mobilesdk_app_id": "1:661060241680:android:3f37acd7b5c8359b",
        "android_client_info": {
          "package_name": "com.example.pruebas_firebase"
        }
      },
      "oauth_client": [
        {
          "client_id": "661060241680-e2qk6f8fe426ilg13vm0j2c4bi571038.apps.googleusercontent.com",
          "client_type": 3
        }
      ],
      "api_key": [
        {
          "current_key": "AIzaSyDI2avcbWFtPsNHMFgvHs3HUPPB67_lu1s"
        }
      ],
      "services": {
        "appinvite_service": {
          "other_platform_oauth_client": [
            {
              "client_id": "661060241680-e2qk6f8fe426ilg13vm0j2c4bi571038.apps.googleusercontent.com",
              "client_type": 3
            },
            {
              "client_id": "661060241680-fpm5tpblrtlkth23aeoaeroodoo1i0as.apps.googleusercontent.com",
              "client_type": 2,
              "ios_info": {
                "bundle_id": "com.example.relappIos"
              }
            }
          ]
        }
      }
    },
    {
      "client_info": {
        "mobilesdk_app_id": "1:661060241680:android:c1ede894d7e5ca28",
        "android_client_info": {
          "package_name": "mx.async.relapp_pruebas"
        }
      },
      "oauth_client": [
        {
          "client_id": "661060241680-e2qk6f8fe426ilg13vm0j2c4bi571038.apps.googleusercontent.com",
          "client_type": 3
        }
      ],
      "api_key": [
        {
          "current_key": "AIzaSyDI2avcbWFtPsNHMFgvHs3HUPPB67_lu1s"
        }
      ],
      "services": {
        "appinvite_service": {
          "other_platform_oauth_client": [
            {
              "client_id": "661060241680-e2qk6f8fe426ilg13vm0j2c4bi571038.apps.googleusercontent.com",
              "client_type": 3
            },
            {
              "client_id": "661060241680-fpm5tpblrtlkth23aeoaeroodoo1i0as.apps.googleusercontent.com",
              "client_type": 2,
              "ios_info": {
                "bundle_id": "com.example.relappIos"
              }
            }
          ]
        }
      }
    }
  ],
  "configuration_version": "1"
}